verilog-simulasyonu/spi_denetleyici.vcd
$date
	Mon Feb 27 00:49:27 2023
$end
$version
	Icarus Verilog
$end
$timescale
	1ps
$end
$scope module spi_denetleyici $end
$var wire 1 ! clk_i $end
$var wire 1 " cmd_empty $end
$var wire 1 # cmd_full $end
$var wire 1 $ rst_i $end
$var wire 1 % spi_cs_o $end
$var wire 1 & spi_miso_i $end
$var wire 1 ' spi_sck_o $end
$var wire 1 ( wb_ack_o $end
$var wire 32 ) wb_adr_i [31:0] $end
$var wire 1 * wb_cyc_i $end
$var wire 32 + wb_dat_i [31:0] $end
$var wire 32 , wb_dat_o [31:0] $end
$var wire 4 - wb_sel_i [3:0] $end
$var wire 1 . wb_stb_i $end
$var wire 1 / wb_we_i $end
$var wire 1 0 spi_rst $end
$var wire 1 1 spi_mosi_o $end
$var wire 1 2 spi_en $end
$var wire 16 3 sck_div [15:0] $end
$var wire 1 4 mosi_full $end
$var wire 1 5 mosi_en $end
$var wire 1 6 mosi_empty $end
$var wire 1 7 miso_full $end
$var wire 1 8 miso_en $end
$var wire 1 9 miso_empty $end
$var wire 9 : length [8:0] $end
$var wire 1 ; cs_active $end
$var wire 1 < cpol $end
$var wire 1 = cpha $end
$var reg 9 > bit_ctr [8:0] $end
$var reg 9 ? bit_ctr_next [8:0] $end
$var reg 16 @ clock_ctr [15:0] $end
$var reg 16 A clock_ctr_next [15:0] $end
$var reg 9 B flow_ctr [8:0] $end
$var reg 9 C flow_ctr_next [8:0] $end
$var reg 4 D miso_tail [3:0] $end
$var reg 4 E miso_tail_next [3:0] $end
$var reg 4 F mosi_tail [3:0] $end
$var reg 4 G mosi_tail_next [3:0] $end
$var reg 32 H spi_cmd [31:0] $end
$var reg 32 I spi_cmd_next [31:0] $end
$var reg 1 J spi_cs_o_r $end
$var reg 1 K spi_cs_o_r_next $end
$var reg 32 L spi_ctrl [31:0] $end
$var reg 32 M spi_ctrl_next [31:0] $end
$var reg 32 N spi_rdata [31:0] $end
$var reg 32 O spi_rdata_next [31:0] $end
$var reg 1 P spi_sck_o_r $end
$var reg 1 Q spi_sck_o_r_next $end
$var reg 33 R spi_wdata [32:0] $end
$var reg 33 S spi_wdata_next [32:0] $end
$var reg 3 T state [2:0] $end
$var reg 3 U state_next [2:0] $end
$var reg 32 V wb_dat_o_r [31:0] $end
$var reg 32 W wb_dat_o_r_next [31:0] $end
$var integer 32 X loop_counter [31:0] $end
$upscope $end
$enddefinitions $end
#0
$dumpvars
b1000 X
bx W
bx V
b1 U
b1 T
b0 S
b0 R
0Q
0P
b0 O
b0 N
b0 M
b0 L
1K
1J
b0 I
b0 H
b0 G
b0 F
b0 E
b0 D
b0 C
b0 B
b0 A
b0 @
b0 ?
b0 >
0=
0<
0;
b0 :
19
08
07
16
05
04
b0 3
02
01
00
z/
z.
bz -
bx ,
bz +
z*
bz )
z(
0'
z&
1%
1$
0#
0"
1!
$end
#5000
0!
#10000
0$
b1000 X
1!
#15000
0!
#20000
b1 G
1/
b10101010111111110000000001010101 +
b100000000000010000000000001100 )
b1000 X
1!
#25000
0!
#30000
b0 W
0/
b0 +
b0 )
b1 G
06
b1 F
b1000 X
1!
#35000
0!
#40000
b1000 X
1!
#45000
0!
#50000
b1000 X
1!
#55000
0!
#60000
b1000 X
1!
#65000
0!
#70000
b10000000000000001 M
1/
b10000000000000001 +
b100000000000010000000000000000 )
b1000 X
1!
#75000
0!
#80000
b10000000000000 I
b10000000000000 +
b100000000000010000000000010000 )
12
b1 3
b10000000000000001 L
b1000 X
1!
#85000
0!
#90000
b10000000000000001 W
0/
b0 +
b0 )
b10101010111111110000000001010101 S
b10 U
0K
b100000 ?
b1 A
15
b10000000000000 H
b1000 X
1!
#95000
0!
#100000
b0 A
b100000 >
b1 @
b10 T
0%
0J
b10101010111111110000000001010101 R
b1000 X
1!
#105000
0!
#110000
1Q
b1 A
b0 @
b1000 X
1!
#115000
0!
#120000
b0 A
b1 @
1'
1P
b1000 X
1!
#125000
0!
#130000
b101010101111111100000000010101010 S
b11111 ?
0Q
b1 A
b0 @
b1000 X
1!
#135000
0!
#140000
11
b0 A
b11111 >
b1 @
0'
0P
b101010101111111100000000010101010 R
b1000 X
1!
#145000
0!
#150000
1Q
b1 A
b0 @
b1000 X
1!
#155000
0!
#160000
b0 A
b1 @
1'
1P
b1000 X
1!
#165000
0!
#170000
b10101011111111000000000101010100 S
b11110 ?
0Q
b1 A
b0 @
b1000 X
1!
#175000
0!
#180000
01
b0 A
b11110 >
b1 @
0'
0P
b10101011111111000000000101010100 R
b1000 X
1!
#185000
0!
#190000
1Q
b1 A
b0 @
b1000 X
1!
#195000
0!
#200000
b0 A
b1 @
1'
1P
b1000 X
1!
#205000
0!
#210000
b101010111111110000000001010101000 S
b11101 ?
0Q
b1 A
b0 @
b1000 X
1!
#215000
0!
#220000
11
b0 A
b11101 >
b1 @
0'
0P
b101010111111110000000001010101000 R
b1000 X
1!
#225000
0!
#230000
1Q
b1 A
b0 @
b1000 X
1!
#235000
0!
#240000
b0 A
b1 @
1'
1P
b1000 X
1!
#245000
0!
#250000
b10101111111100000000010101010000 S
b11100 ?
0Q
b1 A
b0 @
b1000 X
1!
#255000
0!
#260000
01
b0 A
b11100 >
b1 @
0'
0P
b10101111111100000000010101010000 R
b1000 X
1!
#265000
0!
#270000
1Q
b1 A
b0 @
b1000 X
1!
#275000
0!
#280000
b0 A
b1 @
1'
1P
b1000 X
1!
#285000
0!
#290000
b101011111111000000000101010100000 S
b11011 ?
0Q
b1 A
b0 @
b1000 X
1!
#295000
0!
#300000
11
b0 A
b11011 >
b1 @
0'
0P
b101011111111000000000101010100000 R
b1000 X
1!
#305000
0!
#310000
1Q
b1 A
b0 @
b1000 X
1!
#315000
0!
#320000
b0 A
b1 @
1'
1P
b1000 X
1!
#325000
0!
#330000
b10111111110000000001010101000000 S
b11010 ?
0Q
b1 A
b0 @
b1000 X
1!
#335000
0!
#340000
01
b0 A
b11010 >
b1 @
0'
0P
b10111111110000000001010101000000 R
b1000 X
1!
#345000
0!
#350000
1Q
b1 A
b0 @
b1000 X
1!
#355000
0!
#360000
b0 A
b1 @
1'
1P
b1000 X
1!
#365000
0!
#370000
b101111111100000000010101010000000 S
b11001 ?
0Q
b1 A
b0 @
b1000 X
1!
#375000
0!
#380000
11
b0 A
b11001 >
b1 @
0'
0P
b101111111100000000010101010000000 R
b1000 X
1!
#385000
0!
#390000
1Q
b1 A
b0 @
b1000 X
1!
#395000
0!
#400000
b0 A
b1 @
1'
1P
b1000 X
1!
#405000
0!
#410000
b11111111000000000101010100000000 S
b11000 ?
0Q
b1 A
b0 @
b1000 X
1!
#415000
0!
#420000
01
b0 A
b11000 >
b1 @
0'
0P
b11111111000000000101010100000000 R
b1000 X
1!
#425000
0!
#430000
1Q
b1 A
b0 @
b1000 X
1!
#435000
0!
#440000
b0 A
b1 @
1'
1P
b1000 X
1!
#445000
0!
#450000
b111111110000000001010101000000000 S
b10111 ?
0Q
b1 A
b0 @
b1000 X
1!
#455000
0!
#460000
11
b0 A
b10111 >
b1 @
0'
0P
b111111110000000001010101000000000 R
b1000 X
1!
#465000
0!
#470000
1Q
b1 A
b0 @
b1000 X
1!
#475000
0!
#480000
b0 A
b1 @
1'
1P
b1000 X
1!
#485000
0!
#490000
b111111100000000010101010000000000 S
b10110 ?
0Q
b1 A
b0 @
b1000 X
1!
#495000
0!
#500000
b0 A
b10110 >
b1 @
0'
0P
b111111100000000010101010000000000 R
b1000 X
1!
#505000
0!
#510000
1Q
b1 A
b0 @
b1000 X
1!
#515000
0!
#520000
b0 A
b1 @
1'
1P
b1000 X
1!
#525000
0!
#530000
b111111000000000101010100000000000 S
b10101 ?
0Q
b1 A
b0 @
b1000 X
1!
#535000
0!
#540000
b0 A
b10101 >
b1 @
0'
0P
b111111000000000101010100000000000 R
b1000 X
1!
#545000
0!
#550000
1Q
b1 A
b0 @
b1000 X
1!
#555000
0!
#560000
b0 A
b1 @
1'
1P
b1000 X
1!
#565000
0!
#570000
b111110000000001010101000000000000 S
b10100 ?
0Q
b1 A
b0 @
b1000 X
1!
#575000
0!
#580000
b0 A
b10100 >
b1 @
0'
0P
b111110000000001010101000000000000 R
b1000 X
1!
#585000
0!
#590000
1Q
b1 A
b0 @
b1000 X
1!
#595000
0!
#600000
b0 A
b1 @
1'
1P
b1000 X
1!
#605000
0!
#610000
b111100000000010101010000000000000 S
b10011 ?
0Q
b1 A
b0 @
b1000 X
1!
#615000
0!
#620000
b0 A
b10011 >
b1 @
0'
0P
b111100000000010101010000000000000 R
b1000 X
1!
#625000
0!
#630000
1Q
b1 A
b0 @
b1000 X
1!
#635000
0!
#640000
b0 A
b1 @
1'
1P
b1000 X
1!
#645000
0!
#650000
b111000000000101010100000000000000 S
b10010 ?
0Q
b1 A
b0 @
b1000 X
1!
#655000
0!
#660000
b0 A
b10010 >
b1 @
0'
0P
b111000000000101010100000000000000 R
b1000 X
1!
#665000
0!
#670000
1Q
b1 A
b0 @
b1000 X
1!
#675000
0!
#680000
b0 A
b1 @
1'
1P
b1000 X
1!
#685000
0!
#690000
b110000000001010101000000000000000 S
b10001 ?
0Q
b1 A
b0 @
b1000 X
1!
#695000
0!
#700000
b0 A
b10001 >
b1 @
0'
0P
b110000000001010101000000000000000 R
b1000 X
1!
#705000
0!
#710000
1Q
b1 A
b0 @
b1000 X
1!
#715000
0!
#720000
b0 A
b1 @
1'
1P
b1000 X
1!
#725000
0!
#730000
b100000000010101010000000000000000 S
b10000 ?
0Q
b1 A
b0 @
b1000 X
1!
#735000
0!
#740000
b0 A
b10000 >
b1 @
0'
0P
b100000000010101010000000000000000 R
b1000 X
1!
#745000
0!
#750000
1Q
b1 A
b0 @
b1000 X
1!
#755000
0!
#760000
b0 A
b1 @
1'
1P
b1000 X
1!
#765000
0!
#770000
b101010100000000000000000 S
b1111 ?
0Q
b1 A
b0 @
b1000 X
1!
#775000
0!
#780000
01
b0 A
b1111 >
b1 @
0'
0P
b101010100000000000000000 R
b1000 X
1!
#785000
0!
#790000
1Q
b1 A
b0 @
b1000 X
1!
#795000
0!
#800000
b0 A
b1 @
1'
1P
b1000 X
1!
#805000
0!
#810000
b1010101000000000000000000 S
b1110 ?
0Q
b1 A
b0 @
b1000 X
1!
#815000
0!
#820000
b0 A
b1110 >
b1 @
0'
0P
b1010101000000000000000000 R
b1000 X
1!
#825000
0!
#830000
1Q
b1 A
b0 @
b1000 X
1!
#835000
0!
#840000
b0 A
b1 @
1'
1P
b1000 X
1!
#845000
0!
#850000
b10101010000000000000000000 S
b1101 ?
0Q
b1 A
b0 @
b1000 X
1!
#855000
0!
#860000
b0 A
b1101 >
b1 @
0'
0P
b10101010000000000000000000 R
b1000 X
1!
#865000
0!
#870000
1Q
b1 A
b0 @
b1000 X
1!
#875000
0!
#880000
b0 A
b1 @
1'
1P
b1000 X
1!
#885000
0!
#890000
b101010100000000000000000000 S
b1100 ?
0Q
b1 A
b0 @
b1000 X
1!
#895000
0!
#900000
b0 A
b1100 >
b1 @
0'
0P
b101010100000000000000000000 R
b1000 X
1!
#905000
0!
#910000
1Q
b1 A
b0 @
b1000 X
1!
#915000
0!
#920000
b0 A
b1 @
1'
1P
b1000 X
1!
#925000
0!
#930000
b1010101000000000000000000000 S
b1011 ?
0Q
b1 A
b0 @
b1000 X
1!
#935000
0!
#940000
b0 A
b1011 >
b1 @
0'
0P
b1010101000000000000000000000 R
b1000 X
1!
#945000
0!
#950000
1Q
b1 A
b0 @
b1000 X
1!
#955000
0!
#960000
b0 A
b1 @
1'
1P
b1000 X
1!
#965000
0!
#970000
b10101010000000000000000000000 S
b1010 ?
0Q
b1 A
b0 @
b1000 X
1!
#975000
0!
#980000
b0 A
b1010 >
b1 @
0'
0P
b10101010000000000000000000000 R
b1000 X
1!
#985000
0!
#990000
1Q
b1 A
b0 @
b1000 X
1!
#995000
0!
#1000000
b0 A
b1 @
1'
1P
b1000 X
1!
#1005000
0!
#1010000
b101010100000000000000000000000 S
b1001 ?
0Q
b1 A
b0 @
b1000 X
1!
#1015000
0!
#1020000
b0 A
b1001 >
b1 @
0'
0P
b101010100000000000000000000000 R
b1000 X
1!
#1025000
0!
#1030000
1Q
b1 A
b0 @
b1000 X
1!
#1035000
0!
#1040000
b0 A
b1 @
1'
1P
b1000 X
1!
#1045000
0!
#1050000
b1010101000000000000000000000000 S
b1000 ?
0Q
b1 A
b0 @
b1000 X
1!
#1055000
0!
#1060000
b0 A
b1000 >
b1 @
0'
0P
b1010101000000000000000000000000 R
b1000 X
1!
#1065000
0!
#1070000
1Q
b1 A
b0 @
b1000 X
1!
#1075000
0!
#1080000
b0 A
b1 @
1'
1P
b1000 X
1!
#1085000
0!
#1090000
b10101010000000000000000000000000 S
b111 ?
0Q
b1 A
b0 @
b1000 X
1!
#1095000
0!
#1100000
b0 A
b111 >
b1 @
0'
0P
b10101010000000000000000000000000 R
b1000 X
1!
#1105000
0!
#1110000
1Q
b1 A
b0 @
b1000 X
1!
#1115000
0!
#1120000
b0 A
b1 @
1'
1P
b1000 X
1!
#1125000
0!
#1130000
b101010100000000000000000000000000 S
b110 ?
0Q
b1 A
b0 @
b1000 X
1!
#1135000
0!
#1140000
11
b0 A
b110 >
b1 @
0'
0P
b101010100000000000000000000000000 R
b1000 X
1!
#1145000
0!
#1150000
1Q
b1 A
b0 @
b1000 X
1!
#1155000
0!
#1160000
b0 A
b1 @
1'
1P
b1000 X
1!
#1165000
0!
#1170000
b10101000000000000000000000000000 S
b101 ?
0Q
b1 A
b0 @
b1000 X
1!
#1175000
0!
#1180000
01
b0 A
b101 >
b1 @
0'
0P
b10101000000000000000000000000000 R
b1000 X
1!
#1185000
0!
#1190000
1Q
b1 A
b0 @
b1000 X
1!
#1195000
0!
#1200000
b0 A
b1 @
1'
1P
b1000 X
1!
#1205000
0!
#1210000
b101010000000000000000000000000000 S
b100 ?
0Q
b1 A
b0 @
b1000 X
1!
#1215000
0!
#1220000
11
b0 A
b100 >
b1 @
0'
0P
b101010000000000000000000000000000 R
b1000 X
1!
#1225000
0!
#1230000
1Q
b1 A
b0 @
b1000 X
1!
#1235000
0!
#1240000
b0 A
b1 @
1'
1P
b1000 X
1!
#1245000
0!
#1250000
b10100000000000000000000000000000 S
b11 ?
0Q
b1 A
b0 @
b1000 X
1!
#1255000
0!
#1260000
01
b0 A
b11 >
b1 @
0'
0P
b10100000000000000000000000000000 R
b1000 X
1!
#1265000
0!
#1270000
1Q
b1 A
b0 @
b1000 X
1!
#1275000
0!
#1280000
b0 A
b1 @
1'
1P
b1000 X
1!
#1285000
0!
#1290000
b101000000000000000000000000000000 S
b10 ?
0Q
b1 A
b0 @
b1000 X
1!
#1295000
0!
#1300000
11
b0 A
b10 >
b1 @
0'
0P
b101000000000000000000000000000000 R
b1000 X
1!
#1305000
0!
#1310000
1Q
b1 A
b0 @
b1000 X
1!
#1315000
0!
#1320000
b0 A
b1 @
1'
1P
b1000 X
1!
#1325000
0!
#1330000
b10000000000000000000000000000000 S
b1 ?
0Q
b1 A
b0 @
b1000 X
1!
#1335000
0!
#1340000
01
b0 A
b1 >
b1 @
0'
0P
b10000000000000000000000000000000 R
b1000 X
1!
#1345000
0!
#1350000
1Q
b1 A
b0 @
b1000 X
1!
#1355000
0!
#1360000
b0 A
b1 @
1'
1P
b1000 X
1!
#1365000
0!
#1370000
b100000000000000000000000000000000 S
b0 ?
0Q
b1 A
b0 @
b1000 X
1!
#1375000
0!
#1380000
11
b0 A
b0 >
b1 @
0'
0P
b100000000000000000000000000000000 R
b1000 X
1!
#1385000
0!
#1390000
1K
b0 I
b10000000000000000 M
b1 U
b0 G
b0 A
b0 @
b1000 X
1!
#1395000
0!
#1400000
05
02
b10000000000000000 W
b100000000000000000000000000000000 S
b1 U
1K
b0 ?
b0 A
b1 T
1%
1J
b0 H
b10000000000000000 L
16
b0 F
b1000 X
1!
#1405000
0!
#1410000
b1000 X
1!
#1415000
0!
#1420000
b1000 X
1!
#1425000
0!
#1430000
b1000 X
1!
#1435000
0!
#1440000
b1000 X
1!
#1445000
0!
#1450000
b1000 X
1!
#1455000
0!
#1460000
b1000 X
1!
#1465000
0!
#1470000
b1000 X
1!
#1475000
0!
#1480000
b1000 X
1!
#1485000
0!
#1490000
b1000 X
1!
#1495000
0!
#1500000
b1000 X
1!
#1505000
0!
#1510000
b1000 X
1!
#1515000
0!
#1520000
b1000 X
1!
#1525000
0!
#1530000
b1000 X
1!
#1535000
0!
#1540000
b1000 X
1!
#1545000
0!
#1550000
b1000 X
1!
#1555000
0!
#1560000
b1000 X
1!
#1565000
0!
#1570000
b1000 X
1!
#1575000
0!
#1580000
b1000 X
1!
#1585000
0!
#1590000
b1000 X
1!
#1595000
0!
#1600000
b1000 X
1!
#1605000
0!
#1610000
b1000 X
1!
#1615000
0!
#1620000
b1000 X
1!
#1625000
0!
#1630000
b1000 X
1!
#1635000
0!
#1640000
b1000 X
1!
#1645000
0!
#1650000
b1000 X
1!
#1655000
0!
#1660000
b1000 X
1!
#1665000
0!
#1670000
b1000 X
1!
#1675000
0!
#1680000
b1000 X
1!
#1685000
0!
#1690000
b1000 X
1!
#1695000
0!
#1700000
b1000 X
1!
#1705000
0!
#1710000
b1000 X
1!
#1715000
0!
#1720000
b1000 X
1!
#1725000
0!
#1730000
b1000 X
1!
#1735000
0!
#1740000
b1000 X
1!
#1745000
0!
#1750000
b1000 X
1!
#1755000
0!
#1760000
b1000 X
1!
#1765000
0!
#1770000
b1000 X
1!
#1775000
0!
#1780000
b1000 X
1!
#1785000
0!
#1790000
b1000 X
1!
#1795000
0!
#1800000
b1000 X
1!
#1805000
0!
#1810000
b1000 X
1!
#1815000
0!
#1820000
b1000 X
1!
#1825000
0!
#1830000
b1000 X
1!
#1835000
0!
#1840000
b1000 X
1!
#1845000
0!
#1850000
b1000 X
1!
#1855000
0!
#1860000
b1000 X
1!
#1865000
0!
#1870000
b1000 X
1!
#1875000
0!
#1880000
b1000 X
1!
#1885000
0!
#1890000
b1000 X
1!
#1895000
0!
#1900000
b1000 X
1!
#1905000
0!
#1910000
b1000 X
1!
#1915000
0!
#1920000
b1000 X
1!
#1925000
0!
#1930000
b1000 X
1!
#1935000
0!
#1940000
b1000 X
1!
#1945000
0!
#1950000
b1000 X
1!
#1955000
0!
#1960000
b1000 X
1!
#1965000
0!
#1970000
b1000 X
1!
#1975000
0!
#1980000
b1000 X
1!
#1985000
0!
#1990000
b1000 X
1!
#1995000
0!
#2000000
b1000 X
1!
#2005000
0!
#2010000
b1000 X
1!
#2015000
0!
#2020000
b1000 X
1!
#2025000
0!
#2030000
b1000 X
1!
#2035000
0!
#2040000
b1000 X
1!
#2045000
0!
#2050000
b1000 X
1!
#2055000
0!
#2060000
b1000 X
1!
#2065000
0!
#2070000
b1000 X
1!
#2075000
0!
#2080000
b1000 X
1!
#2085000
0!
#2090000
b1000 X
1!
