verilog-simulasyonu/transcript
# do ./build/runsim.do
# Model Technology ModelSim - Intel FPGA Edition vmap 2020.1 Lib Mapping Utility 2020.02 Feb 28 2020
# vmap -c 
# ** Warning: vmap will not overwrite local modelsim.ini.
# Model Technology ModelSim - Intel FPGA Edition vmap 2020.1 Lib Mapping Utility 2020.02 Feb 28 2020
# vmap work ./build/work 
# Modifying modelsim.ini
# Model Technology ModelSim - Intel FPGA Edition vlog 2020.1 Compiler 2020.02 Feb 28 2020
# Start time: 20:57:47 on Mar 31,2023
# vlog -work work "+define+COCOTB_SIM" -sv -timescale 1ns/1ps -mfcu "+incdir+../verilog-tasarimi" "+acc" ../cevreleyici/simpleuart.v ../cevreleyici/teknofest_ram.v ../cevreleyici/teknofest_ram_basys3.v ../cevreleyici/teknofest_ram_vcu108.v ../cevreleyici/teknofest_wrapper.v ../cevreleyici/teknofest_wrapper_basys3.v ../cevreleyici/teknofest_wrapper_vcu108.v ../verilog-tasarimi/user_processor.v ../verilog-tasarimi/cekirdek/cekirdek.v ../verilog-tasarimi/cekirdek/denetim_durum_birimi.v ../verilog-tasarimi/bellek/RAM256_Veri.v ../verilog-tasarimi/bellek/anabellek_denetleyici.v ../verilog-tasarimi/bellek/buyruk_ffram.v ../verilog-tasarimi/bellek/buyruk_onbellegi.v ../verilog-tasarimi/bellek/buyruk_tagvram.v ../verilog-tasarimi/bellek/sram_40b_512_1w_1r_sky130.v ../verilog-tasarimi/bellek/sram_40b_512_1w_1r_sky130_verilator.v ../verilog-tasarimi/bellek/sram_41b_256_1w_1r_sky130.v ../verilog-tasarimi/bellek/veri_onbellegi.v ../verilog-tasarimi/cekirdek/boru_hatti/yurut/aritmetik_mantik_birimi.v ../verilog-tasarimi/cekirdek/boru_hatti/yurut/bellek_islem_birimi.v ../verilog-tasarimi/cekirdek/boru_hatti/yurut/bolme_birimi.v ../verilog-tasarimi/cekirdek/boru_hatti/yurut/carp_biriktir.v ../verilog-tasarimi/cekirdek/boru_hatti/yurut/carpma_birimi.v ../verilog-tasarimi/cekirdek/boru_hatti/yurut/carry_lookahead_toplayici.v ../verilog-tasarimi/cekirdek/boru_hatti/yurut/yurut.v ../verilog-tasarimi/cekirdek/boru_hatti/yurut/x-buyruklari/yapay_zeka_hizlandiricisi.v ../verilog-tasarimi/cekirdek/boru_hatti/yurut/x-buyruklari/sifreleme_birimi/hamming_distance.v ../verilog-tasarimi/cekirdek/boru_hatti/yurut/x-buyruklari/sifreleme_birimi/pkg_unit.v ../verilog-tasarimi/cekirdek/boru_hatti/yurut/x-buyruklari/sifreleme_birimi/popcount.v ../verilog-tasarimi/cekirdek/boru_hatti/yurut/x-buyruklari/sifreleme_birimi/rvrs_unit.v ../verilog-tasarimi/cekirdek/boru_hatti/yurut/x-buyruklari/sifreleme_birimi/sifreleme_birimi.v ../verilog-tasarimi/cekirdek/boru_hatti/yurut/x-buyruklari/sifreleme_birimi/sladd_unit.v ../verilog-tasarimi/cekirdek/boru_hatti/yurut/x-buyruklari/sifreleme_birimi/zero_counter.v ../verilog-tasarimi/cekirdek/boru_hatti/getir/dallanma_ongorucu.v ../verilog-tasarimi/cekirdek/boru_hatti/getir/getir.v ../verilog-tasarimi/cekirdek/boru_hatti/coz_yazmacoku/coz_yazmacoku.v ../verilog-tasarimi/cekirdek/boru_hatti/coz_yazmacoku/yazmac_obegi.v ../verilog-tasarimi/cekirdek/boru_hatti/geri_yaz/geri_yaz.v ../verilog-tasarimi/veriyolu/veriyolu.v ../verilog-tasarimi/veriyolu/wishbone_master.v ../verilog-tasarimi/cevre_birimleri/pwm/pwm_denetleyici.v ../verilog-tasarimi/cevre_birimleri/pwm/pwm_heartbeat_mode.v ../verilog-tasarimi/cevre_birimleri/pwm/pwm_standard_mode.v ../verilog-tasarimi/cevre_birimleri/spi/spi_denetleyici.v ../verilog-tasarimi/cevre_birimleri/uart/uart_denetleyici.v ../verilog-tasarimi/cevre_birimleri/uart/uart_rx.v ../verilog-tasarimi/cevre_birimleri/uart/uart_tx.v 
# -- Compiling module simpleuart
# -- Compiling module teknofest_ram
# -- Compiling module teknofest_ram_basys3
# -- Compiling module teknofest_ram_vcu108
# -- Compiling module teknofest_wrapper
# -- Compiling module teknofest_wrapper_basys3
# -- Compiling module teknofest_wrapper_vcu108
# -- Compiling module user_processor
# -- Compiling module cekirdek
# -- Compiling module denetim_durum_birimi
# -- Compiling module RAM256_Veri
# -- Compiling module anabellek_denetleyici
# -- Compiling module buyruk_ffram
# -- Compiling module buyruk_onbellegi
# -- Compiling module buyruk_tagvram
# -- Compiling module sram_40b_512_1w_1r_sky130
# -- Compiling module sram_40b_512_1w_1r_sky130_verilator
# -- Compiling module sram_41b_256_1w_1r_sky130
# -- Compiling module veri_onbellegi
# -- Compiling module aritmetik_mantik_birimi
# -- Compiling module bellek_islem_birimi
# -- Compiling module bolme_birimi
# -- Compiling module carp_biriktir
# -- Compiling module DT_SB4_33x33_67
# -- Compiling module KS_67
# -- Compiling module ha
# -- Compiling module fa
# -- Compiling module carpma_birimi
# -- Compiling module carry_lookahead_toplayici
# -- Compiling module yurut
# -- Compiling module yapay_zeka_hizlandiricisi
# -- Compiling module yapay_zeka_yazmac_obegi
# -- Compiling module hamming_distance
# -- Compiling module pkg_unit
# -- Compiling module popcount
# -- Compiling module rvrs_unit
# -- Compiling module sifreleme_birimi
# -- Compiling module sladd_unit
# -- Compiling module zero_counter
# -- Compiling module zero_counter_16
# -- Compiling module dallanma_ongorucu
# -- Compiling module getir
# -- Compiling module coz_yazmacoku
# -- Compiling module yazmac_obegi
# -- Compiling module geri_yaz
# -- Compiling module veriyolu
# -- Compiling module wishbone_master
# -- Compiling module pwm_denetleyici
# -- Compiling module pwm_heartbeat_mode
# -- Compiling module pwm_standard_mode
# -- Compiling module spi_denetleyici
# -- Compiling module uart_denetleyici
# -- Compiling module uart_rx
# -- Compiling module uart_tx
# 
# Top level modules:
# 	teknofest_wrapper
# 	teknofest_wrapper_basys3
# 	teknofest_wrapper_vcu108
# 	sram_40b_512_1w_1r_sky130
# 	sram_40b_512_1w_1r_sky130_verilator
# 	sram_41b_256_1w_1r_sky130
# End time: 20:57:47 on Mar 31,2023, Elapsed time: 0:00:00
# Errors: 0, Warnings: 0
# vsim "+define+SIMULATION" -onfinish exit -pli "/home/mehmet/miniconda3/envs/py3_32/lib/python3.7/site-packages/cocotb/libs/libcocotbvpi_modelsim.so" ./build/work.teknofest_wrapper 
# Start time: 20:57:47 on Mar 31,2023
# Loading sv_std.std
# Loading ./build/work.teknofest_wrapper
# Loading ./build/work.user_processor
# Loading ./build/work.cekirdek
# Loading ./build/work.geri_yaz
# Loading ./build/work.yurut
# Loading ./build/work.aritmetik_mantik_birimi
# Loading ./build/work.carry_lookahead_toplayici
# Loading ./build/work.sifreleme_birimi
# Loading ./build/work.hamming_distance
# Loading ./build/work.popcount
# Loading ./build/work.pkg_unit
# Loading ./build/work.rvrs_unit
# Loading ./build/work.sladd_unit
# Loading ./build/work.zero_counter
# Loading ./build/work.zero_counter_16
# Loading ./build/work.carpma_birimi
# Loading ./build/work.carp_biriktir
# Loading ./build/work.DT_SB4_33x33_67
# Loading ./build/work.ha
# Loading ./build/work.fa
# Loading ./build/work.KS_67
# Loading ./build/work.bellek_islem_birimi
# Loading ./build/work.yapay_zeka_hizlandiricisi
# Loading ./build/work.yapay_zeka_yazmac_obegi
# Loading ./build/work.bolme_birimi
# Loading ./build/work.coz_yazmacoku
# Loading ./build/work.yazmac_obegi
# Loading ./build/work.getir
# Loading ./build/work.dallanma_ongorucu
# Loading ./build/work.denetim_durum_birimi
# Loading ./build/work.buyruk_onbellegi
# Loading ./build/work.buyruk_ffram
# Loading ./build/work.buyruk_tagvram
# Loading ./build/work.veri_onbellegi
# Loading ./build/work.RAM256_Veri
# Loading ./build/work.anabellek_denetleyici
# Loading ./build/work.veriyolu
# Loading ./build/work.wishbone_master
# Loading ./build/work.uart_denetleyici
# Loading ./build/work.uart_tx
# Loading ./build/work.uart_rx
# Loading ./build/work.pwm_denetleyici
# Loading ./build/work.pwm_standard_mode
# Loading ./build/work.pwm_heartbeat_mode
# Loading ./build/work.spi_denetleyici
# Loading ./build/work.teknofest_ram
# Loading ./build/work.simpleuart
# ** Warning: (vsim-3015) [PCDPC] - Port size (32) does not match connection size (12) for port 'increment_step'. The port definition is at: ../verilog-tasarimi/cevre_birimleri/pwm/pwm_heartbeat_mode.v(15).
#    Time: 0 ps  Iteration: 0  Instance: /teknofest_wrapper/soc/veriyolu_dut/pwm_denetleyici_dut/phm0 File: ../verilog-tasarimi/cevre_birimleri/pwm/pwm_denetleyici.v Line: 370
# ** Warning: (vsim-3015) [PCDPC] - Port size (32) does not match connection size (12) for port 'increment_step'. The port definition is at: ../verilog-tasarimi/cevre_birimleri/pwm/pwm_heartbeat_mode.v(15).
#    Time: 0 ps  Iteration: 0  Instance: /teknofest_wrapper/soc/veriyolu_dut/pwm_denetleyici_dut/phm1 File: ../verilog-tasarimi/cevre_birimleri/pwm/pwm_denetleyici.v Line: 395
# Loading /home/mehmet/miniconda3/envs/py3_32/lib/python3.7/site-packages/cocotb/libs/libcocotbvpi_modelsim.so
#      -.--ns INFO     gpi                                ..mbed/gpi_embed.cpp:76   in set_program_name_in_venv        Did not detect Python virtual environment. Using system-wide Python interpreter
#      -.--ns INFO     gpi                                ../gpi/GpiCommon.cpp:101  in gpi_print_registered_impl       VPI registered
# 16777216
# None
# (vsim-4077) Logging very large object: /teknofest_wrapper/main_memory/ram
#      0.00ns INFO     cocotb                             Running on ModelSim - INTEL FPGA STARTER EDITION version 2020.1 2020.02
#      0.00ns INFO     cocotb                             Running tests with cocotb v1.7.2 from /home/mehmet/miniconda3/envs/py3_32/lib/python3.7/site-packages/cocotb
#      0.00ns INFO     cocotb                             Seeding Python random module with supplied seed 123456789
#      0.00ns INFO     cocotb.regression                  pytest not found, install it to enable better AssertionError messages
#      0.00ns INFO     cocotb.regression                  Found test test_random_teknofest_wrapper.test_random_teknofest_wrapper
#      0.00ns INFO     cocotb.regression                  running test_random_teknofest_wrapper (1/1)
# 1
# 1073749164
# [FINISHED] 
# Writing back: Adr:0x40005c08 idx:5890 val:0x2b444853 ctag: 000010111 cval:00101011010001000100100001010011 cline:00001011100101011010001000100100001010011 cacheidx:2 way0
# Writing back: Adr:0x4000280c idx:2563 val:0x000002ad ctag: 000001010 cval:00000000000000000000001010101101 cline:00000101000000000000000000000001010101101 cacheidx:3 way0
# Writing back: Adr:0x40004818 idx:4614 val:0xf7b48752 ctag: 000010010 cval:11110111101101001000011101010010 cline:00001001011110111101101001000011101010010 cacheidx:6 way0
# Writing back: Adr:0x40005c1c idx:5895 val:0x0000004d ctag: 000010111 cval:00000000000000000000000001001101 cline:00001011100000000000000000000000001001101 cacheidx:7 way0
# Writing back: Adr:0x40004420 idx:4360 val:0x37fbcc37 ctag: 000010001 cval:00110111111110111100110000110111 cline:00001000100110111111110111100110000110111 cacheidx:8 way0
# Writing back: Adr:0x40004024 idx:4105 val:0x4644eb23 ctag: 000010000 cval:01000110010001001110101100100011 cline:00001000001000110010001001110101100100011 cacheidx:9 way0
# Writing back: Adr:0x40003428 idx:3338 val:0xe549f7b1 ctag: 000001101 cval:11100101010010011111011110110001 cline:00000110111100101010010011111011110110001 cacheidx:10 way0
# Writing back: Adr:0x4000602c idx:6155 val:0x0000018c ctag: 000011000 cval:00000000000000000000000110001100 cline:00001100000000000000000000000000110001100 cacheidx:11 way0
# Writing back: Adr:0x40004830 idx:4620 val:0x0990d0d8 ctag: 000010010 cval:00001001100100001101000011011000 cline:00001001000001001100100001101000011011000 cacheidx:12 way0
# Writing back: Adr:0x40005438 idx:5390 val:0x39a753d7 ctag: 000010101 cval:00111001101001110101001111010111 cline:00001010100111001101001110101001111010111 cacheidx:14 way0
# Writing back: Adr:0x4000543c idx:5391 val:0x6a58e3f8 ctag: 000010101 cval:01101010010110001110001111111000 cline:00001010101101010010110001110001111111000 cacheidx:15 way0
# Writing back: Adr:0x40004c48 idx:4882 val:0x02add89e ctag: 000010011 cval:00000010101011011101100010011110 cline:00001001100000010101011011101100010011110 cacheidx:18 way0
# Writing back: Adr:0x40005c4c idx:5907 val:0x33fa4236 ctag: 000010111 cval:00110011111110100100001000110110 cline:00001011100110011111110100100001000110110 cacheidx:19 way0
# Writing back: Adr:0x40003858 idx:3606 val:0xffffd887 ctag: 000001110 cval:11111111111111111101100010000111 cline:00000111011111111111111111101100010000111 cacheidx:22 way0
# Writing back: Adr:0x4000545c idx:5399 val:0x2b4c38d0 ctag: 000010101 cval:00101011010011000011100011010000 cline:00001010100101011010011000011100011010000 cacheidx:23 way0
# Writing back: Adr:0x40003868 idx:3610 val:0x26bc3032 ctag: 000001110 cval:00100110101111000011000000110010 cline:00000111000100110101111000011000000110010 cacheidx:26 way0
# Writing back: Adr:0x40002c78 idx:2846 val:0x781ab2ea ctag: 000001011 cval:01111000000110101011001011101010 cline:00000101101111000000110101011001011101010 cacheidx:30 way0
# Writing back: Adr:0x40004080 idx:4128 val:0x00000084 ctag: 000010000 cval:00000000000000000000000010000100 cline:00001000000000000000000000000000010000100 cacheidx:32 way0
# Writing back: Adr:0x4000488c idx:4643 val:0x289a11f9 ctag: 000010010 cval:00101000100110100001000111111001 cline:00001001000101000100110100001000111111001 cacheidx:35 way0
# Writing back: Adr:0x40004494 idx:4389 val:0x9df47641 ctag: 000010001 cval:10011101111101000111011001000001 cline:00001000110011101111101000111011001000001 cacheidx:37 way0
# Writing back: Adr:0x4000309c idx:3111 val:0x484977f2 ctag: 000001100 cval:01001000010010010111011111110010 cline:00000110001001000010010010111011111110010 cacheidx:39 way0
# Writing back: Adr:0x400030a4 idx:3113 val:0x6f8fd66d ctag: 000001100 cval:01101111100011111101011001101101 cline:00000110001101111100011111101011001101101 cacheidx:41 way0
# Writing back: Adr:0x400040a8 idx:4138 val:0xf95e8c4f ctag: 000010000 cval:11111001010111101000110001001111 cline:00001000011111001010111101000110001001111 cacheidx:42 way0
# Writing back: Adr:0x400058ac idx:5675 val:0x00000039 ctag: 000010110 cval:00000000000000000000000000111001 cline:00001011000000000000000000000000000111001 cacheidx:43 way0
# Writing back: Adr:0x400028b4 idx:2605 val:0x4ef50002 ctag: 000001010 cval:01001110111101010000000000000010 cline:00000101001001110111101010000000000000010 cacheidx:45 way0
# Writing back: Adr:0x40002cbc idx:2863 val:0x77f29227 ctag: 000001011 cval:01110111111100101001001000100111 cline:00000101101110111111100101001001000100111 cacheidx:47 way0
# Writing back: Adr:0x400048c0 idx:4656 val:0x2647004f ctag: 000010010 cval:00100110010001110000000001001111 cline:00001001000100110010001110000000001001111 cacheidx:48 way0
# Writing back: Adr:0x400044c4 idx:4401 val:0x0000000a ctag: 000010001 cval:00000000000000000000000000001010 cline:00001000100000000000000000000000000001010 cacheidx:49 way0
# Writing back: Adr:0x400040c8 idx:4146 val:0xf3bda61d ctag: 000010000 cval:11110011101111011010011000011101 cline:00001000011110011101111011010011000011101 cacheidx:50 way0
# Writing back: Adr:0x400048cc idx:4659 val:0x35136e35 ctag: 000010010 cval:00110101000100110110111000110101 cline:00001001000110101000100110110111000110101 cacheidx:51 way0
# Writing back: Adr:0x400050dc idx:5175 val:0x7907ff52 ctag: 000010100 cval:01111001000001111111111101010010 cline:00001010001111001000001111111111101010010 cacheidx:55 way0
# Writing back: Adr:0x400060e0 idx:6200 val:0x2088db36 ctag: 000011000 cval:00100000100010001101101100110110 cline:00001100000100000100010001101101100110110 cacheidx:56 way0
# Writing back: Adr:0x40004ce4 idx:4921 val:0x265bd8f1 ctag: 000010011 cval:00100110010110111101100011110001 cline:00001001100100110010110111101100011110001 cacheidx:57 way0
# Writing back: Adr:0x400040e8 idx:4154 val:0xd9962596 ctag: 000010000 cval:11011001100101100010010110010110 cline:00001000011011001100101100010010110010110 cacheidx:58 way0
# Writing back: Adr:0x400060ec idx:6203 val:0x009da608 ctag: 000011000 cval:00000000100111011010011000001000 cline:00001100000000000100111011010011000001000 cacheidx:59 way0
# Writing back: Adr:0x400054f0 idx:5436 val:0x2edad0d0 ctag: 000010101 cval:00101110110110101101000011010000 cline:00001010100101110110110101101000011010000 cacheidx:60 way0
# Writing back: Adr:0x400044f8 idx:4414 val:0x447d7e99 ctag: 000010001 cval:01000100011111010111111010011001 cline:00001000101000100011111010111111010011001 cacheidx:62 way0
# Writing back: Adr:0x400038fc idx:3647 val:0x50b209be ctag: 000001110 cval:01010000101100100000100110111110 cline:00000111001010000101100100000100110111110 cacheidx:63 way0
# Writing back: Adr:0x40004500 idx:4416 val:0x2687ffd4 ctag: 000010001 cval:00100110100001111111111111010100 cline:00001000100100110100001111111111111010100 cacheidx:64 way0
# Writing back: Adr:0x40005510 idx:5444 val:0x35ad77f2 ctag: 000010101 cval:00110101101011010111011111110010 cline:00001010100110101101011010111011111110010 cacheidx:68 way0
# Writing back: Adr:0x40004514 idx:4421 val:0x2fa0327e ctag: 000010001 cval:00101111101000000011001001111110 cline:00001000100101111101000000011001001111110 cacheidx:69 way0
# Writing back: Adr:0x40003118 idx:3142 val:0x982c938f ctag: 000001100 cval:10011000001011001001001110001111 cline:00000110010011000001011001001001110001111 cacheidx:70 way0
# Writing back: Adr:0x40002924 idx:2633 val:0xb2a9da2f ctag: 000001010 cval:10110010101010011101101000101111 cline:00000101010110010101010011101101000101111 cacheidx:73 way0
# Writing back: Adr:0x40003934 idx:3661 val:0x4a164df2 ctag: 000001110 cval:01001010000101100100110111110010 cline:00000111001001010000101100100110111110010 cacheidx:77 way0
# Writing back: Adr:0x40003138 idx:3150 val:0x000000cd ctag: 000001100 cval:00000000000000000000000011001101 cline:00000110000000000000000000000000011001101 cacheidx:78 way0
# Writing back: Adr:0x4000393c idx:3663 val:0x697cce3e ctag: 000001110 cval:01101001011111001100111000111110 cline:00000111001101001011111001100111000111110 cacheidx:79 way0
# Writing back: Adr:0x40005144 idx:5201 val:0x7c3e9dc2 ctag: 000010100 cval:01111100001111101001110111000010 cline:00001010001111100001111101001110111000010 cacheidx:81 way0
# Writing back: Adr:0x40005948 idx:5714 val:0xaf893cf8 ctag: 000010110 cval:10101111100010010011110011111000 cline:00001011010101111100010010011110011111000 cacheidx:82 way0
# Writing back: Adr:0x40003550 idx:3412 val:0xdde3f0e9 ctag: 000001101 cval:11011101111000111111000011101001 cline:00000110111011101111000111111000011101001 cacheidx:84 way0
# Writing back: Adr:0x40003154 idx:3157 val:0x3de10000 ctag: 000001100 cval:00111101111000010000000000000000 cline:00000110000111101111000010000000000000000 cacheidx:85 way0
# Writing back: Adr:0x40003164 idx:3161 val:0x00000052 ctag: 000001100 cval:00000000000000000000000001010010 cline:00000110000000000000000000000000001010010 cacheidx:89 way0
# Writing back: Adr:0x40003968 idx:3674 val:0x8660631c ctag: 000001110 cval:10000110011000000110001100011100 cline:00000111010000110011000000110001100011100 cacheidx:90 way0
# Writing back: Adr:0x40004170 idx:4188 val:0xffffc95e ctag: 000010000 cval:11111111111111111100100101011110 cline:00001000011111111111111111100100101011110 cacheidx:92 way0
# Writing back: Adr:0x40003184 idx:3169 val:0x5bb5a644 ctag: 000001100 cval:01011011101101011010011001000100 cline:00000110001011011101101011010011001000100 cacheidx:97 way0
# Writing back: Adr:0x40005988 idx:5730 val:0xe934d0cb ctag: 000010110 cval:11101001001101001101000011001011 cline:00001011011101001001101001101000011001011 cacheidx:98 way0
# Writing back: Adr:0x4000458c idx:4451 val:0x0008ea8e ctag: 000010001 cval:00000000000010001110101010001110 cline:00001000100000000000010001110101010001110 cacheidx:99 way0
# Writing back: Adr:0x40004194 idx:4197 val:0xff09ca12 ctag: 000010000 cval:11111111000010011100101000010010 cline:00001000011111111000010011100101000010010 cacheidx:101 way0
# Writing back: Adr:0x40004998 idx:4710 val:0xd887878b ctag: 000010010 cval:11011000100001111000011110001011 cline:00001001011011000100001111000011110001011 cacheidx:102 way0
# Writing back: Adr:0x40004da0 idx:4968 val:0x00002530 ctag: 000010011 cval:00000000000000000010010100110000 cline:00001001100000000000000000010010100110000 cacheidx:104 way0
# Writing back: Adr:0x40003da4 idx:3945 val:0x26bc3032 ctag: 000001111 cval:00100110101111000011000000110010 cline:00000111100100110101111000011000000110010 cacheidx:105 way0
# Writing back: Adr:0x40003da8 idx:3946 val:0xacc75f5c ctag: 000001111 cval:10101100110001110101111101011100 cline:00000111110101100110001110101111101011100 cacheidx:106 way0
# Writing back: Adr:0x40002db0 idx:2924 val:0x00750000 ctag: 000001011 cval:00000000011101010000000000000000 cline:00000101100000000011101010000000000000000 cacheidx:108 way0
# Writing back: Adr:0x40003dbc idx:3951 val:0x6f60a58e ctag: 000001111 cval:01101111011000001010010110001110 cline:00000111101101111011000001010010110001110 cacheidx:111 way0
# Writing back: Adr:0x400055c0 idx:5488 val:0x44e45f12 ctag: 000010101 cval:01000100111001000101111100010010 cline:00001010101000100111001000101111100010010 cacheidx:112 way0
# Writing back: Adr:0x400031c8 idx:3186 val:0x04a40af8 ctag: 000001100 cval:00000100101001000000101011111000 cline:00000110000000100101001000000101011111000 cacheidx:114 way0
# Writing back: Adr:0x400059d4 idx:5749 val:0xffa91547 ctag: 000010110 cval:11111111101010010001010101000111 cline:00001011011111111101010010001010101000111 cacheidx:117 way0
# Writing back: Adr:0x40004ddc idx:4983 val:0x460800d3 ctag: 000010011 cval:01000110000010000000000011010011 cline:00001001101000110000010000000000011010011 cacheidx:119 way0
# Writing back: Adr:0x400061e0 idx:6264 val:0x21558bbf ctag: 000011000 cval:00100001010101011000101110111111 cline:00001100000100001010101011000101110111111 cacheidx:120 way0
# Writing back: Adr:0x400059e4 idx:5753 val:0x0741017a ctag: 000010110 cval:00000111010000010000000101111010 cline:00001011000000111010000010000000101111010 cacheidx:121 way0
# Writing back: Adr:0x400049f4 idx:4733 val:0x476a613d ctag: 000010010 cval:01000111011010100110000100111101 cline:00001001001000111011010100110000100111101 cacheidx:125 way0
# Writing back: Adr:0x400049fc idx:4735 val:0x1df8721f ctag: 000010010 cval:00011101111110000111001000011111 cline:00001001000011101111110000111001000011111 cacheidx:127 way0
# Writing back: Adr:0x40003e08 idx:3970 val:0x67d43f48 ctag: 000001111 cval:01100111110101000011111101001000 cline:00000111101100111110101000011111101001000 cacheidx:130 way0
# Writing back: Adr:0x40005a0c idx:5763 val:0xc19022a4 ctag: 000010110 cval:11000001100100000010001010100100 cline:00001011011000001100100000010001010100100 cacheidx:131 way0
# Writing back: Adr:0x4000561c idx:5511 val:0x323319a8 ctag: 000010101 cval:00110010001100110001100110101000 cline:00001010100110010001100110001100110101000 cacheidx:135 way0
# Writing back: Adr:0x40003628 idx:3466 val:0x0b5b9a5a ctag: 000001101 cval:00001011010110111001101001011010 cline:00000110100001011010110111001101001011010 cacheidx:138 way0
# Writing back: Adr:0x40003630 idx:3468 val:0xa4bf87af ctag: 000001101 cval:10100100101111111000011110101111 cline:00000110110100100101111111000011110101111 cacheidx:140 way0
# Writing back: Adr:0x40005e34 idx:6029 val:0x22265c2e ctag: 000010111 cval:00100010001001100101110000101110 cline:00001011100100010001001100101110000101110 cacheidx:141 way0
# Writing back: Adr:0x40002e38 idx:2958 val:0x0000004b ctag: 000001011 cval:00000000000000000000000001001011 cline:00000101100000000000000000000000001001011 cacheidx:142 way0
# Writing back: Adr:0x40004e44 idx:5009 val:0x008cdddb ctag: 000010011 cval:00000000100011001101110111011011 cline:00001001100000000100011001101110111011011 cacheidx:145 way0
# Writing back: Adr:0x40002e4c idx:2963 val:0x6fd3b3fe ctag: 000001011 cval:01101111110100111011001111111110 cline:00000101101101111110100111011001111111110 cacheidx:147 way0
# Writing back: Adr:0x40003e54 idx:3989 val:0xf7b1fb3d ctag: 000001111 cval:11110111101100011111101100111101 cline:00000111111110111101100011111101100111101 cacheidx:149 way0
# Writing back: Adr:0x4000325c idx:3223 val:0x00000000 ctag: 000001100 cval:00000000000000000000000000000000 cline:00000110000000000000000000000000000000000 cacheidx:151 way0
# Writing back: Adr:0x40004a64 idx:4761 val:0x0a52001d ctag: 000010010 cval:00001010010100100000000000011101 cline:00001001000001010010100100000000000011101 cacheidx:153 way0
# Writing back: Adr:0x40003a68 idx:3738 val:0xd42f738b ctag: 000001110 cval:11010100001011110111001110001011 cline:00000111011010100001011110111001110001011 cacheidx:154 way0
# Writing back: Adr:0x4000526c idx:5275 val:0x0951f18d ctag: 000010100 cval:00001001010100011111000110001101 cline:00001010000001001010100011111000110001101 cacheidx:155 way0
# Writing back: Adr:0x40003678 idx:3486 val:0xce80cf08 ctag: 000001101 cval:11001110100000001100111100001000 cline:00000110111001110100000001100111100001000 cacheidx:158 way0
# Writing back: Adr:0x40004a8c idx:4771 val:0x6f1f3922 ctag: 000010010 cval:01101111000111110011100100100010 cline:00001001001101111000111110011100100100010 cacheidx:163 way0
# Writing back: Adr:0x40004a94 idx:4773 val:0x603c494b ctag: 000010010 cval:01100000001111000100100101001011 cline:00001001001100000001111000100100101001011 cacheidx:165 way0
# Writing back: Adr:0x400052a0 idx:5288 val:0xb37e071e ctag: 000010100 cval:10110011011111100000011100011110 cline:00001010010110011011111100000011100011110 cacheidx:168 way0
# Writing back: Adr:0x40003aa8 idx:3754 val:0x727e98fa ctag: 000001110 cval:01110010011111101001100011111010 cline:00000111001110010011111101001100011111010 cacheidx:170 way0
# Writing back: Adr:0x400046ac idx:4523 val:0x5c717ff4 ctag: 000010001 cval:01011100011100010111111111110100 cline:00001000101011100011100010111111111110100 cacheidx:171 way0
# Writing back: Adr:0x400032b4 idx:3245 val:0x4a3ad887 ctag: 000001100 cval:01001010001110101101100010000111 cline:00000110001001010001110101101100010000111 cacheidx:173 way0
# Writing back: Adr:0x400042c0 idx:4272 val:0x000002ad ctag: 000010000 cval:00000000000000000000001010101101 cline:00001000000000000000000000000001010101101 cacheidx:176 way0
# Writing back: Adr:0x400032d8 idx:3254 val:0xccde3ecc ctag: 000001100 cval:11001100110111100011111011001100 cline:00000110011001100110111100011111011001100 cacheidx:182 way0
# Writing back: Adr:0x400056dc idx:5559 val:0x7195e404 ctag: 000010101 cval:01110001100101011110010000000100 cline:00001010101110001100101011110010000000100 cacheidx:183 way0
# Writing back: Adr:0x40003ee8 idx:4026 val:0x415a8140 ctag: 000001111 cval:01000001010110101000000101000000 cline:00000111101000001010110101000000101000000 cacheidx:186 way0
# Writing back: Adr:0x400052ec idx:5307 val:0x29df8d22 ctag: 000010100 cval:00101001110111111000110100100010 cline:00001010000101001110111111000110100100010 cacheidx:187 way0
# Writing back: Adr:0x400036fc idx:3519 val:0x01708b6a ctag: 000001101 cval:00000001011100001000101101101010 cline:00000110100000001011100001000101101101010 cacheidx:191 way0
# Writing back: Adr:0x40005708 idx:5570 val:0x2d1aa09e ctag: 000010101 cval:00101101000110101010000010011110 cline:00001010100101101000110101010000010011110 cacheidx:194 way0
# Writing back: Adr:0x40005f0c idx:6083 val:0x1e453945 ctag: 000010111 cval:00011110010001010011100101000101 cline:00001011100011110010001010011100101000101 cacheidx:195 way0
# Writing back: Adr:0x40002f10 idx:3012 val:0x00000000 ctag: 000001011 cval:00000000000000000000000000000000 cline:00000101100000000000000000000000000000000 cacheidx:196 way0
# Writing back: Adr:0x40004318 idx:4294 val:0xffffffd4 ctag: 000010000 cval:11111111111111111111111111010100 cline:00001000011111111111111111111111111010100 cacheidx:198 way0
# Writing back: Adr:0x4000431c idx:4295 val:0x26755fb4 ctag: 000010000 cval:00100110011101010101111110110100 cline:00001000000100110011101010101111110110100 cacheidx:199 way0
# Writing back: Adr:0x4000432c idx:4299 val:0x2b2d1b9d ctag: 000010000 cval:00101011001011010001101110011101 cline:00001000000101011001011010001101110011101 cacheidx:203 way0
# Writing back: Adr:0x40002f30 idx:3020 val:0xffff8fd8 ctag: 000001011 cval:11111111111111111000111111011000 cline:00000101111111111111111111000111111011000 cacheidx:204 way0
# Writing back: Adr:0x40005338 idx:5326 val:0x364282e8 ctag: 000010100 cval:00110110010000101000001011101000 cline:00001010000110110010000101000001011101000 cacheidx:206 way0
# Writing back: Adr:0x40005b3c idx:5839 val:0x018cfd63 ctag: 000010110 cval:00000001100011001111110101100011 cline:00001011000000001100011001111110101100011 cacheidx:207 way0
# Writing back: Adr:0x40005f40 idx:6096 val:0xf7fd5599 ctag: 000010111 cval:11110111111111010101010110011001 cline:00001011111110111111111010101010110011001 cacheidx:208 way0
# Writing back: Adr:0x40003b44 idx:3793 val:0x09dfe375 ctag: 000001110 cval:00001001110111111110001101110101 cline:00000111000001001110111111110001101110101 cacheidx:209 way0
# Writing back: Adr:0x40005348 idx:5330 val:0x0000f0dd ctag: 000010100 cval:00000000000000001111000011011101 cline:00001010000000000000000001111000011011101 cacheidx:210 way0
# Writing back: Adr:0x4000474c idx:4563 val:0x6a6e4ffc ctag: 000010001 cval:01101010011011100100111111111100 cline:00001000101101010011011100100111111111100 cacheidx:211 way0
# Writing back: Adr:0x40005b54 idx:5845 val:0x253d9219 ctag: 000010110 cval:00100101001111011001001000011001 cline:00001011000100101001111011001001000011001 cacheidx:213 way0
# Writing back: Adr:0x40002f58 idx:3030 val:0xa2ea0eb5 ctag: 000001011 cval:10100010111010100000111010110101 cline:00000101110100010111010100000111010110101 cacheidx:214 way0
# Writing back: Adr:0x40005f74 idx:6109 val:0x2088db36 ctag: 000010111 cval:00100000100010001101101100110110 cline:00001011100100000100010001101101100110110 cacheidx:221 way0
# Writing back: Adr:0x40003f84 idx:4065 val:0x37bd0001 ctag: 000001111 cval:00110111101111010000000000000001 cline:00000111100110111101111010000000000000001 cacheidx:225 way0
